<svg width="37" height="27" viewBox="0 0 37 27" fill="none" xmlns="http://www.w3.org/2000/svg">
<path d="M18.5 -1.83268e-07L37 18.016L35.7173 19.2651L18.5 2.54626L1.332 19.2651L1.88192e-07 18.016L18.5 -1.83268e-07Z" transform="translate(0 27) scale(1 -1)" fill="white"/>
<path d="M18.5 0L37 18.016L35.7173 19.2651L18.5 2.54626L1.332 19.2651L1.88192e-07 18.016L18.5 0Z" transform="translate(0 19.2646) scale(1 -1)" fill="white"/>
</svg>
