<svg width="31" height="23" viewBox="0 0 31 23" fill="none" xmlns="http://www.w3.org/2000/svg">
<path d="M30.955 4.31747C30.955 1.93656 29.0416 -1.01197e-07 26.6892 -1.01197e-07H4.26581C1.91339 -1.01197e-07 -9.37373e-09 1.93656 -9.37373e-09 4.31747V18.6825C-9.37373e-09 21.0634 1.91339 23 4.26581 23H26.6892C29.0416 23 30.9615 21.0634 30.9615 18.6825V4.31747H30.955ZM2.26068 4.31747C2.26068 3.20329 3.15841 2.30133 4.25926 2.30133H26.6826C27.7835 2.30133 28.6812 3.20329 28.6812 4.31747V5.63725H2.26068V4.31747ZM26.6826 20.6987H4.25926C3.15841 20.6987 2.26068 19.7901 2.26068 18.6825V7.8141H28.6746V18.6825C28.6812 19.7967 27.7835 20.6987 26.6826 20.6987ZM9.77009 18.0989H26.0011V16.7858H9.77009V18.0989Z" fill="white"/>
</svg>
