<svg width="18" height="24" viewBox="0 0 18 24" fill="none" xmlns="http://www.w3.org/2000/svg">
<path fill-rule="evenodd" clip-rule="evenodd" d="M16.7267 14.4578C16.7481 14.6755 16.9298 14.8376 17.1407 14.8376L17.1856 14.8357C17.4142 14.8113 17.5802 14.6033 17.5567 14.3709C17.4591 13.4021 17.5313 12.1892 17.756 11.0437L17.7618 11.0095C18.0138 9.8562 18.422 6.87671 16.8009 4.09644C15.6739 2.16675 13.8438 0.805422 11.6466 0.265383C6.36728 -1.03833 2.36142 2.66968 1.27158 6.8357L1.17978 7.23999C0.994231 8.19898 0.623138 9.08862 0.0762627 9.88159C-0.0565498 10.074 -0.0116279 10.3376 0.177825 10.4714C0.367278 10.6062 0.627044 10.5593 0.759856 10.3679C1.37314 9.47632 1.78915 8.47925 1.99423 7.41675L2.08017 7.0398C3.06454 3.27613 6.68368 -0.089109 11.4493 1.08863C13.4278 1.57495 15.0724 2.79663 16.0821 4.52808C17.5528 7.04859 17.1759 9.77222 16.9454 10.8347L16.9356 10.8787C16.6974 12.1042 16.6192 13.408 16.7267 14.4578ZM14.3595 5.56519C15.3243 7.22046 15.2227 9.03589 15.0626 10.0105C15.0372 10.1677 15.0059 10.3054 14.9806 10.4187L14.9708 10.4724C14.7618 11.5408 14.1876 15.1941 15.5509 17.4011C15.629 17.5291 15.7657 17.5994 15.9044 17.5994C15.9806 17.5994 16.0567 17.5789 16.1251 17.5349C16.3204 17.4109 16.379 17.1492 16.2579 16.9519C15.0274 14.9587 15.6524 11.3425 15.7892 10.6384L15.7931 10.6169L15.8106 10.5564C15.836 10.4421 15.8614 10.3054 15.8868 10.1492C16.0645 9.0564 16.1759 7.01538 15.0782 5.13355L15.0684 5.11695C14.2208 3.67163 12.838 2.65015 11.1759 2.24097L11.1524 2.23511C7.12118 1.25464 4.05087 4.13257 3.20712 7.35913L3.14853 7.61988C2.64853 10.1804 1.24423 11.8386 0.152435 12.781C-0.0233467 12.9324 -0.044831 13.2 0.10556 13.3777C0.253997 13.5564 0.517669 13.5779 0.69345 13.4265C1.88095 12.4021 3.40048 10.6033 3.94931 7.85132L3.96103 7.80933L4.01572 7.56226C4.71103 4.90894 7.11923 2.51343 10.3263 2.94116C10.5392 2.96948 10.7579 3.0105 10.9786 3.06519C12.2442 3.37671 13.3224 4.09644 14.0626 5.11206C14.1681 5.25757 14.2677 5.40796 14.3595 5.56519ZM8.15439 23.0105C8.23642 23.1238 8.36337 23.1834 8.49228 23.1834C8.57822 23.1834 8.66415 23.157 8.73837 23.1013C9.46103 22.5632 10.1309 21.9529 10.7345 21.283C10.9181 21.5691 11.1173 21.8406 11.3282 22.0935C11.4767 22.2722 11.7403 22.2947 11.9161 22.1433C12.0919 21.9929 12.1153 21.7253 11.9649 21.5466C11.6681 21.1902 11.3966 20.7917 11.1583 20.3621C11.0919 20.241 10.9708 20.1609 10.8341 20.1482C10.6974 20.1345 10.5626 20.1912 10.4747 20.2976C9.8204 21.0916 9.06845 21.8044 8.24423 22.4187C8.05868 22.5564 8.01962 22.822 8.15439 23.0105ZM5.55673 22.6248C5.40439 22.6248 5.25595 22.5398 5.18368 22.3923C5.08017 22.1834 5.1622 21.9285 5.36923 21.823C8.60751 20.1658 10.0313 17.738 11.086 15.3601C11.1681 15.1785 11.3614 15.0798 11.5528 15.1199C11.7442 15.1609 11.8829 15.3328 11.8849 15.531C11.8849 15.5603 11.9259 18.4841 13.5938 20.3523C13.7481 20.5261 13.7364 20.7937 13.5645 20.9509C13.3946 21.1082 13.1309 21.0945 12.9767 20.9216C11.8946 19.7097 11.42 18.1599 11.211 17.033C10.1544 19.0525 8.59384 21.1218 5.74423 22.5798C5.68368 22.6111 5.61923 22.6248 5.55673 22.6248ZM14.4532 19.3093C14.5352 19.4021 14.6485 19.449 14.7638 19.449C14.8634 19.449 14.963 19.4119 15.0431 19.3396C15.213 19.1834 15.2267 18.9148 15.0724 18.741C12.8595 16.2585 13.5587 11.6091 13.8263 10.2429L13.838 10.1794C13.9962 9.49292 14.2618 7.72827 13.3536 6.17066C12.7735 5.17847 11.8575 4.50269 10.7013 4.21753C7.86337 3.51929 5.7579 5.52515 5.14072 7.88159L5.10751 8.02417C4.32236 12.0818 1.60947 14.3064 0.48056 15.074C0.289153 15.2039 0.236419 15.4666 0.365325 15.6609C0.494231 15.8552 0.752044 15.907 0.94345 15.7781C2.16025 14.9509 5.08212 12.5574 5.92392 8.20093L5.95126 8.08472C6.45907 6.14038 8.18759 4.47241 10.504 5.04077C11.4356 5.27027 12.1739 5.81031 12.6349 6.60132C13.4102 7.93238 13.1309 9.53003 13.0196 10.0164L13.0079 10.0769C12.6427 11.9539 12.0489 16.6091 14.4532 19.3093ZM4.07822 21.0857C3.91806 21.0857 3.76376 20.9919 3.6954 20.8328C3.60361 20.6189 3.69931 20.3689 3.90829 20.2742C9.93954 17.5808 11.0392 9.71655 11.0489 9.63745L11.0606 9.58277C11.0626 9.57202 11.3595 8.40405 10.9102 7.6355C10.7247 7.31812 10.4356 7.11597 10.0313 7.01538C8.43368 6.62281 7.90634 8.52612 7.88486 8.60718C6.89462 13.7322 3.41025 16.5544 1.95908 17.5291C1.76767 17.658 1.50986 17.6042 1.38095 17.4099C1.254 17.2146 1.30673 16.9519 1.50009 16.823C2.86337 15.907 6.13681 13.2546 7.07236 8.41577C7.33212 7.42359 8.3165 5.72144 10.2267 6.19312C10.8556 6.34741 11.3263 6.68823 11.629 7.20581C12.2169 8.21558 11.9278 9.55542 11.8731 9.77417C11.7911 10.3767 10.5958 18.2136 4.24618 21.0505C4.1915 21.075 4.1329 21.0857 4.07822 21.0857ZM2.0079 19.199C2.07626 19.3582 2.23056 19.4529 2.39072 19.4529C2.44736 19.4529 2.504 19.4412 2.55868 19.4167C8.50595 16.7625 9.88486 9.35913 9.93954 9.04566C9.98056 8.81519 9.83017 8.59448 9.60361 8.55347C9.37704 8.51245 9.16025 8.6648 9.11923 8.89429C9.10556 8.96655 7.7579 16.1707 2.22275 18.6414C2.01181 18.7351 1.91611 18.9851 2.0079 19.199Z" transform="translate(0 0.557617)" fill="white"/>
</svg>
