<svg width="18" height="18" viewBox="0 0 18 18" fill="none" xmlns="http://www.w3.org/2000/svg">
<path d="M16.1969 0H1.80306C0.809847 0 0 0.809847 0 1.80306V16.1969C0 17.1902 0.809847 18 1.80306 18H16.1969C17.1902 18 18 17.1902 18 16.1969V1.80306C18 0.809847 17.1902 0 16.1969 0ZM9 5.40153C10.9788 5.40153 12.5985 7.02122 12.5985 9C12.5985 10.9788 10.9788 12.5985 9 12.5985C7.02122 12.5985 5.40153 10.9788 5.40153 9C5.40153 7.02122 7.02122 5.40153 9 5.40153ZM2.24618 16.1969C1.97878 16.1969 1.79542 16.0136 1.79542 15.7462V8.09847H3.68251C3.59083 8.37351 3.59083 8.7326 3.59083 9C3.59083 11.972 6.02037 14.4015 8.99236 14.4015C11.9643 14.4015 14.3939 11.972 14.3939 9C14.3939 8.7326 14.3939 8.37351 14.3022 8.09847H16.1969V15.7462C16.1969 16.0136 16.0136 16.1969 15.7462 16.1969H2.24618ZM16.1969 4.04924C16.1969 4.31664 16.0136 4.5 15.7462 4.5H13.9431C13.6757 4.5 13.4924 4.31664 13.4924 4.04924V2.24618C13.4924 1.97878 13.6757 1.79542 13.9431 1.79542H15.7462C16.0136 1.79542 16.1969 1.97878 16.1969 2.24618V4.04924Z" fill="#F3F3F3"/>
</svg>
