<svg width="11" height="11" viewBox="0 0 11 11" fill="none" xmlns="http://www.w3.org/2000/svg">
<path d="M2.07519 0.00298599C1.98281 0.00924978 1.87762 0.0248872 1.76313 0.0498213C1.53935 0.0998091 1.36275 0.140429 1.23263 0.19042C0.972399 0.340386 0.697115 0.640326 0.405676 1.19021C0.275535 1.4108 0.175551 1.65446 0.109221 1.89319C0.107721 1.8977 0.110721 1.90408 0.109221 1.90879C0.0771653 2.02578 0.0479927 2.13443 0.0312057 2.25247C0.0132261 2.38174 0 2.51285 0 2.64301C0 2.79298 0.015579 2.89921 0.0312057 3.04918C0.0520361 3.19915 0.0779904 3.35224 0.124823 3.50221C0.171657 3.65218 0.207982 3.7959 0.234044 3.84588C0.236044 3.85279 0.232043 3.87072 0.234044 3.87713C0.264302 3.9529 0.330961 4.10017 0.405676 4.29892C0.408177 4.30528 0.403175 4.30806 0.405676 4.31451C0.478868 4.50391 0.531029 4.64122 0.546103 4.68944C0.728245 5.18933 0.936027 5.6486 1.18582 6.04854C1.18832 6.05254 1.18332 6.06038 1.18582 6.06406C1.28682 6.2232 1.41033 6.38318 1.52909 6.54832C1.53159 6.55176 1.52659 6.5603 1.52909 6.56384C1.77012 6.89826 2.05788 7.23595 2.37165 7.59487C2.53068 7.76953 2.69399 7.9473 2.87094 8.12602C2.87394 8.12905 2.86794 8.13882 2.87094 8.14153C3.22746 8.49146 3.57152 8.8039 3.91634 9.07886C4.08875 9.21633 4.26174 9.35068 4.43124 9.4694C4.59985 9.59149 4.76399 9.70996 4.93053 9.81308C5.131 9.93829 5.35649 10.0468 5.58585 10.1568C5.71819 10.2221 5.84991 10.2741 5.99153 10.3286C6.09832 10.3723 6.19204 10.4292 6.30359 10.4692C6.35052 10.4847 6.46985 10.5313 6.67806 10.6098C6.8043 10.6571 6.86274 10.6757 6.94331 10.7035C6.99562 10.7215 7.08428 10.7538 7.11494 10.766C7.15618 10.7788 7.24076 10.7949 7.30218 10.8129C7.36516 10.8382 7.40514 10.8656 7.48941 10.8909C7.53929 10.8909 7.58325 10.8989 7.62984 10.9065C7.70105 10.9262 7.76911 10.9554 7.83267 10.969C7.86103 10.975 7.89892 10.9802 7.92629 10.9845C7.93195 10.9869 7.93627 10.998 7.94187 11H8.34755C8.58696 11 8.82319 10.9594 9.06529 10.8907C9.30701 10.8263 9.55397 10.7424 9.79862 10.6094C10.0615 10.4632 10.2798 10.31 10.4383 10.1721C10.5144 10.1061 10.5734 10.0363 10.6256 9.96896C10.6286 9.96497 10.6226 9.95726 10.6256 9.95343C10.6744 9.89037 10.7246 9.84309 10.7504 9.78162C10.7539 9.77391 10.7469 9.75858 10.7504 9.75036C10.7648 9.72534 10.7832 9.67693 10.7972 9.641C10.8077 9.6094 10.8183 9.58265 10.8284 9.54729C10.8582 9.45471 10.8935 9.35906 10.922 9.25045C10.948 9.12549 10.9558 9.02551 10.9688 8.93803C10.9698 8.93253 10.9678 8.92771 10.9688 8.9225C10.9802 8.84182 11 8.75857 11 8.68819C11 8.59633 10.9819 8.56258 10.9688 8.51636C10.9678 8.51389 10.9698 8.50355 10.9688 8.50084C10.9658 8.49588 10.9436 8.47605 10.9376 8.46959C10.9124 8.43684 10.8697 8.40145 10.8128 8.36023C10.8069 8.35624 10.8033 8.34894 10.7972 8.3447C10.7788 8.3319 10.7404 8.31185 10.7192 8.29787C10.6261 8.2364 10.5241 8.17618 10.3759 8.0948C10.277 8.0448 10.1369 7.94482 9.95463 7.84482C9.77239 7.74485 9.60612 7.69485 9.45533 7.59487C9.30954 7.4949 9.17997 7.44492 9.04966 7.34494C9.02868 7.34494 8.95617 7.28871 8.84682 7.18871C8.73747 7.13874 8.64436 7.09811 8.56597 7.04813C8.49307 6.99813 8.42042 7.00129 8.34752 7.00129C8.24367 7.00129 8.11323 7.03876 7.95745 7.18873C7.80117 7.33871 7.66599 7.53866 7.53617 7.68864C7.40586 7.88858 7.26069 8.03856 7.11489 8.18853C6.9691 8.33849 6.84939 8.39163 6.75603 8.39163C6.70909 8.39163 6.64169 8.39466 6.56879 8.34478C6.50139 8.34478 6.44921 8.29793 6.41276 8.29793C6.37631 8.29793 6.3139 8.23857 6.22552 8.18857C6.13715 8.1386 6.09558 8.09486 6.0851 8.09486C5.37211 7.69493 4.75388 7.25127 4.24395 6.75139C3.73392 6.25149 3.28204 5.59226 2.8865 4.8924C2.88125 4.8924 2.85015 4.85181 2.79288 4.7518C2.74085 4.65182 2.70448 4.5987 2.68366 4.54871C2.66808 4.54871 2.64731 4.49248 2.62125 4.3925C2.59523 4.34251 2.59004 4.30189 2.59004 4.2519C2.59004 4.15192 2.66274 3.99571 2.80848 3.84574C2.95937 3.69577 3.12042 3.58954 3.29217 3.43957C3.46912 3.33959 3.63012 3.199 3.77586 3.04903C3.9268 2.84907 3.99431 2.74284 3.99431 2.64286C3.99431 2.54288 3.98393 2.49289 3.94752 2.39291C3.91107 2.34292 3.85393 2.24295 3.77589 2.14297C3.70299 1.993 3.65104 1.93989 3.63546 1.93989C3.55737 1.78992 3.48465 1.65244 3.40142 1.50247C3.31814 1.3525 3.21948 1.20253 3.12057 1.00258C3.0217 0.852607 2.94374 0.696389 2.88652 0.596409C2.70433 0.246482 2.57451 0.0527749 2.48085 0.00278433H2.30921C2.23896 0.00278433 2.16755 -0.00347947 2.07517 0.00278433L2.07519 0.00298599Z" fill="white"/>
</svg>
