<?xml version="1.0" encoding="utf-8"?>
<!-- Generator: Adobe Illustrator 21.1.0, SVG Export Plug-In . SVG Version: 6.00 Build 0)  -->
<svg version="1.1" baseProfile="tiny" id="Слой_1"
	 xmlns="http://www.w3.org/2000/svg" xmlns:xlink="http://www.w3.org/1999/xlink" x="0px" y="0px" width="23px" height="23px"
	 viewBox="0 0 23 23" xml:space="preserve">
<g>
	<path fill="#492525" d="M14.9,6.7c-0.8-0.6-2.1-0.9-4.4-0.6c-0.2,0-0.4,0.2-0.4,0.5v5.2H9.5C9.2,11.8,9,12,9,12.3
		c0,0.3,0.2,0.5,0.5,0.5h0.6v1.1H9.5c-0.3,0-0.5,0.2-0.5,0.5c0,0.3,0.2,0.5,0.5,0.5h0.6v1.6c0,0.3,0.2,0.5,0.5,0.5
		c0.3,0,0.5-0.2,0.5-0.5v-1.6h2.1c0.3,0,0.5-0.2,0.5-0.5c0-0.3-0.2-0.5-0.5-0.5H11v-1.1h0.9c1.2,0,2.2-0.2,2.9-0.8
		c0.8-0.6,1.2-1.5,1.2-2.8C16,8.3,15.7,7.4,14.9,6.7z M14.3,11.2c-0.5,0.4-1.4,0.6-2.4,0.6H11V7.1c1.7-0.2,2.7,0,3.3,0.5
		c0.6,0.4,0.7,1.1,0.7,1.7C15.1,10.2,14.8,10.8,14.3,11.2z"/>
	<path fill="#492525" d="M11.5,0C5.1,0,0,5.1,0,11.5C0,17.9,5.1,23,11.5,23C17.9,23,23,17.9,23,11.5C23,5.1,17.9,0,11.5,0z M11.5,22
		C5.7,22,1,17.3,1,11.5S5.7,1,11.5,1S22,5.7,22,11.5S17.3,22,11.5,22z"/>
</g>
</svg>
