<?xml version="1.0" encoding="utf-8"?>
<!-- Generator: Adobe Illustrator 21.1.0, SVG Export Plug-In . SVG Version: 6.00 Build 0)  -->
<svg version="1.1" baseProfile="tiny" id="Слой_1"
	 xmlns="http://www.w3.org/2000/svg" xmlns:xlink="http://www.w3.org/1999/xlink" x="0px" y="0px" width="27px" height="27px"
	 viewBox="0 0 27 27" overflow="scroll" xml:space="preserve">
<rect x="-3.8" y="12.7" transform="matrix(0.7071 -0.7071 0.7071 0.7071 -5.6613 13.6675)" fill="#FFFFFF" width="35" height="2"/>
</svg>
