<svg width="15" height="17" viewBox="0 0 15 17" fill="none" xmlns="http://www.w3.org/2000/svg">
<path fill-rule="evenodd" clip-rule="evenodd" d="M0.0378789 6.9284e-08H8.08712C10.7386 6.9284e-08 12.9924 1.24412 12.983 3.75962C12.983 5.85737 12.1875 6.67468 10.5587 7.60096C10.7008 7.70994 11.6288 7.98237 11.9413 8.12767C12.4432 8.36378 12.7367 8.60897 13.0682 8.92682C13.9962 9.82586 14.1667 10.6522 14.1667 12.0689C14.1667 15.3472 10.8617 17 7.67045 17H0L0.0378789 6.9284e-08ZM4.40341 4.45887V6.6656C6.47727 6.6656 8.42803 6.92895 8.42803 4.77671C8.42803 2.77885 6.22159 3.10577 4.40341 3.10577V4.45887ZM4.40341 13.867C6.67614 13.867 9.47917 14.2302 9.52652 11.7511C9.57386 9.17201 6.64773 9.63515 4.40341 9.63515V13.867Z" fill="#F3F3F3"/>
</svg>
