<svg width="247" height="232" viewBox="0 0 247 232" fill="none" xmlns="http://www.w3.org/2000/svg">
<path d="M243.648 146.663H201.103L213.542 119.229C212.59 114.463 200.675 113.037 200.675 113.037L176.383 120.183L159.231 141.144L166.585 146.663H110.036C100.202 129.525 81.7623 117.956 60.5792 117.956C50.942 117.956 41.8757 120.368 33.9159 124.592C20.0867 52.2679 125.004 44.6183 125.004 44.6183L131.918 4.40006C112.436 14.4561 71.5952 6.92391e-07 71.5952 6.92391e-07C67.8276 11.9443 30.119 13.8267 30.119 13.8267C29.4926 29.5387 4.3633 41.4742 4.3633 41.4742C-9.81436 59.2032 13.8014 103.145 28.9656 127.534C13.655 137.76 3.56118 155.185 3.56118 174.975C3.56118 206.469 29.0974 232 60.5821 232C92.0845 232 117.609 206.472 117.609 174.975C117.609 169.281 116.751 163.792 115.197 158.604H174.15C174.823 166.757 182.104 170.683 182.104 170.683L204.013 184.021L212.113 217.848L222.122 217.371L218.31 177.352L200.754 158.604H243.65C251.189 153.578 243.648 146.663 243.648 146.663ZM180.189 134.001C182.572 131.618 187.335 132.095 187.335 132.095L177.47 146.666H167.057L180.189 134.001Z" fill="white"/>
<path d="M33.3496 -3.57363e-07L25.7294 18.581L1.43446 17.6266L0 28.5843L34.3039 34.3076L45.7385 12.3893C38.1155 10.9577 33.3496 -3.57363e-07 33.3496 -3.57363e-07Z" transform="translate(134.924 165.92)" fill="white"/>
<path d="M12.8632 16.6722C12.8632 22.9898 17.9833 28.11 24.2949 28.11C30.6124 28.11 35.7325 22.9898 35.7325 16.6722C35.7325 15.6827 35.5656 14.7371 35.3285 13.8179C38.7976 13.5193 42.3017 13.0714 45.7356 12.3834L23.3435 -1.42945e-06L1.96545e-06 12.3834C1.96545e-06 12.3834 5.36896 13.3202 13.2497 13.8794C13.0184 14.781 12.8632 15.7061 12.8632 16.6722Z" transform="translate(199.244 84.9272)" fill="white"/>
</svg>
