<svg width="248" height="186" viewBox="0 0 248 186" fill="none" xmlns="http://www.w3.org/2000/svg">
<path d="M29.4844 -3.721e-05H-3.36458e-05V209.613H29.4844V-3.721e-05Z" transform="translate(32.4492 142.184) rotate(-89.8973)" fill="#27292D"/>
<path d="M126.236 34.8974C146.438 27.555 161.519 15.1288 167.402 0.306227L6.88385e-05 -8.97221e-05C5.82984 14.8378 20.8652 27.3254 41.0446 34.7443L126.236 34.8974Z" transform="translate(52.459 151.103)" fill="#27292D"/>
<path d="M42.8888 12.4423C54.4188 2.83369 65.4839 1.75418 65.4839 1.75418C65.4839 1.75418 54.2054 -2.05106 38.5527 1.5474C22.8999 5.14586 7.06991e-05 21.2776 7.06991e-05 21.2776L15.9271 35.2121C15.9195 35.2198 26.9084 25.7643 42.8888 12.4423Z" transform="translate(121.57 15.875)" fill="#27292D"/>
<path d="M36.838 55.1372C37.5238 62.5868 39.17 76.9194 42.4011 85.3796C46.8897 97.1703 56.5144 104.153 56.5144 104.153L193.724 104.39C193.724 104.39 182.902 94.6972 180.517 85.3259C178.124 75.947 178.749 66.2772 178.749 66.2772C178.749 66.2772 181.729 81.3984 193.754 90.7926C205.764 100.179 218.399 104.436 218.399 104.436C218.399 104.436 236.102 95.9989 242.198 70.6183C248.295 45.2377 247.998 41.31 247.998 41.31C247.998 41.31 221.562 19.4973 198.387 21.2659C175.213 23.0345 156.825 44.4721 136.333 61.0556C115.849 77.6391 98.6716 87.891 82.1349 82.1181C66.185 76.552 57.5813 64.5162 54.8455 50.9186L56.926 49.2342C64.7905 41.3789 63.0529 33.1024 64.8895 18.8004C66.7184 4.4985 73.0359 0.0272583 73.0359 0.0272583C73.0359 0.0272583 63.4188 -0.44748 53.7788 2.56144C44.1387 5.56271 40.2215 16.1438 39.2994 17.9507L38.3164 18.6628L37.9813 18.5173C36.4571 17.1774 28.8364 8.89327 18.7772 9.76608C8.72557 10.6542 4.8373e-05 14.7503 4.8373e-05 14.7503C4.8373e-05 14.7503 7.5445 16.4806 14.6241 29.0292C21.7112 41.5779 23.22 49.8928 33.4621 54.165C34.5214 54.6167 35.6492 54.9305 36.838 55.1372ZM204.812 41.0345C208.805 41.0421 212.028 44.2882 212.021 48.3001C212.005 52.3043 208.767 55.5507 204.781 55.5431C200.795 55.5354 197.564 52.2738 197.58 48.2772C197.587 44.273 200.819 41.0345 204.812 41.0345Z" fill="#27292D"/>
</svg>
