<svg width="325" height="236" viewBox="0 0 325 236" fill="none" xmlns="http://www.w3.org/2000/svg">
<path fill-rule="evenodd" clip-rule="evenodd" d="M231.329 51.2379L271.021 42.3287C286.624 38.8268 301.849 47.483 305.03 61.6549L324.081 146.538C327.263 160.71 317.196 175.043 301.593 178.545L53.6496 234.194C38.0461 237.696 22.8215 229.04 19.6398 214.868L0.5871 129.982C-2.59454 115.807 7.47382 101.477 23.0754 97.9752L59.3703 89.8297L116.556 30.6452C115.165 28.7204 114.128 26.5309 113.583 24.1041C111.245 13.6852 118.644 3.14711 130.116 0.571912C141.589 -2.00328 152.788 4.36097 155.126 14.7799C155.71 17.3815 155.683 19.987 155.146 22.4733L231.329 51.2379ZM138.589 38.3229C134.066 39.3385 129.589 38.9469 125.677 37.4791L79.4445 85.3307L211.253 55.7467L149.525 32.442C146.663 35.2438 142.917 37.3522 138.589 38.3229ZM284.833 168.193C300.634 164.646 311.204 151.624 308.405 139.161L294.011 75.027C291.216 62.567 276.099 55.3121 260.294 58.86L39.8293 108.341C24.0285 111.888 13.4543 124.906 16.2512 137.368L30.6457 201.503C33.4426 213.964 48.5676 221.221 64.3683 217.674L284.833 168.193ZM41.2668 114.756L261.732 65.275C273.636 62.6032 284.948 67.6901 286.946 76.612L301.341 140.747C303.343 149.671 295.292 159.107 283.39 161.778L62.9269 211.259C51.0226 213.931 39.7062 208.841 37.7023 199.918L23.3078 135.784C21.3058 126.863 29.3605 117.429 41.2668 114.756Z" transform="translate(0 0.874023)" fill="#27292D"/>
<path fill-rule="evenodd" clip-rule="evenodd" d="M6.66602 11.5941C6.07812 10.7005 5.51953 9.0882 5.24805 8.2464C5.10742 8.25324 4.9707 8.24543 4.83789 8.22101C3.87109 8.04621 3.41406 7.47883 2.75977 6.66535C2.54883 6.40168 2.31445 6.11261 2.03711 5.80207C0.904297 4.53547 0 4.52863 0 4.52863C0 4.52863 0.888672 3.83234 2.01172 3.47297C3.03516 3.14679 4.02734 3.74738 4.35352 3.94465L4.42969 3.99054L4.47266 3.99933L4.56641 3.89191L4.58789 3.7923C4.66797 3.40461 4.89844 2.27961 5.82031 1.74445C6.8418 1.1507 7.95117 0.959294 7.95117 0.959294C7.95117 0.959294 7.3457 1.63703 7.50781 3.33429C7.54688 3.75129 7.60156 4.12043 7.65234 4.45734C7.80469 5.49152 7.91211 6.21515 7.38672 7.05109L7.19336 7.29816C7.85742 8.79718 9.15234 9.96613 11.1152 10.2005C13.1523 10.4427 14.8457 8.81965 16.7539 6.38117C17.1719 5.84699 17.5723 5.2884 17.9707 4.73273C19.3887 2.75519 20.7734 0.823552 22.8027 0.200505C25.4023 -0.597347 28.9824 1.24347 28.9824 1.24347C28.9824 1.24347 29.1191 1.68879 29.0801 4.77375C29.043 7.85968 27.2402 9.28644 27.2402 9.28644C27.2402 9.28644 25.6895 9.11847 24.0762 8.34308C22.4609 7.56672 21.7285 5.89777 21.7285 5.89777C21.7285 5.89777 21.9082 7.02961 22.4238 8.05109C22.9395 9.0716 24.4238 9.9134 24.4238 9.9134L8.76367 13.3997C8.76367 13.3997 7.48438 12.8402 6.66602 11.5941ZM25.0586 2.97101C24.957 2.50812 24.5039 2.21613 24.0488 2.31769C23.5938 2.41926 23.3086 2.87629 23.4102 3.3382C23.5137 3.80011 23.9668 4.09406 24.4199 3.9925C24.875 3.89093 25.1621 3.4339 25.0586 2.97101ZM19.1133 1.8841C20.1816 0.479802 21.416 0.0715987 21.416 0.0715987C21.416 0.0715987 20.0293 -0.0787919 18.3379 0.737614C16.6445 1.55402 14.4492 4.00226 14.4492 4.00226L16.627 5.20246L16.6699 5.14386L16.6914 5.11457C16.9375 4.78351 17.8555 3.54133 19.1133 1.8841ZM7.00195 18.4056L6.24414 15.0013L30.1699 9.67707L30.9277 13.0814L7.00195 18.4056ZM28.623 14.6702C28.3359 16.5316 26.9375 18.3519 24.8223 19.7171L15.0996 21.8812C12.6035 21.5413 10.5645 20.4857 9.51562 18.9222L28.623 14.6702Z" transform="translate(54.9609 151.095)" fill="white"/>
<path d="M19.5731 23.2882L14.8948 14.8604C17.0276 14.1037 19.4699 11.9709 19.4699 7.98061C19.4699 3.71511 16.5804 0.343992 11.4893 0.343992H0V23.2882H5.91666V15.5828H8.94379L12.7965 23.2882H19.5731ZM10.5949 10.423H5.91666V5.50387H10.5949C12.1429 5.50387 13.4501 6.39825 13.4501 7.94621C13.4501 9.56297 12.1429 10.423 10.5949 10.423Z" transform="translate(95.3574 143.672) rotate(-12.65)" fill="white"/>
<path d="M39.5636 23.2882V18.1284H28.6591V14.2413H39.3228V9.08139H28.6591V5.50387H39.5636V0.343992H22.7424V23.2882H39.5636Z" transform="translate(95.3574 143.672) rotate(-12.65)" fill="white"/>
<path d="M51.53 23.701C57.6874 23.701 61.093 20.6395 61.093 16.03C61.093 7.49902 48.1245 9.63177 48.1245 6.70784C48.1245 5.74466 48.8812 5.05668 50.6012 5.05668C52.8716 5.05668 55.3827 5.84786 57.3091 7.43022L60.5426 3.19913C58.1002 1.10078 54.9011 0 51.2204 0C45.3381 0 42.0702 3.43992 42.0702 7.29263C42.0702 16.1332 55.0731 13.6221 55.0731 16.7524C55.0731 17.8532 53.8347 18.6444 51.8052 18.6444C48.6749 18.6444 46.1293 17.2684 44.4782 15.6172L41.3478 20.0547C43.6526 22.2563 46.8861 23.701 51.53 23.701Z" transform="translate(95.3574 143.672) rotate(-12.65)" fill="white"/>
<path d="M80.6814 23.2882V18.1284H69.7769V14.2413H80.4406V9.08139H69.7769V5.50387H80.6814V0.343992H63.8602V23.2882H80.6814Z" transform="translate(95.3574 143.672) rotate(-12.65)" fill="white"/>
<path d="M103.69 23.2882L99.0116 14.8604C101.144 14.1037 103.587 11.9709 103.587 7.98061C103.587 3.71511 100.697 0.343992 95.6061 0.343992H84.1168V23.2882H90.0334V15.5828H93.0606L96.9133 23.2882H103.69ZM94.7117 10.423H90.0334V5.50387H94.7117C96.2597 5.50387 97.5669 6.39825 97.5669 7.94621C97.5669 9.56297 96.2597 10.423 94.7117 10.423Z" transform="translate(95.3574 143.672) rotate(-12.65)" fill="white"/>
<path d="M120.145 23.2882L128.814 0.343992H122.106L116.43 16.89L110.789 0.343992H104.081L112.715 23.2882H120.145Z" transform="translate(95.3574 143.672) rotate(-12.65)" fill="white"/>
<path d="M147.33 23.2882V18.1284H136.425V14.2413H147.089V9.08139H136.425V5.50387H147.33V0.343992H130.509V23.2882H147.33Z" transform="translate(95.3574 143.672) rotate(-12.65)" fill="white"/>
<path d="M160.431 23.2882C167.621 23.2882 172.815 18.9196 172.815 11.7989C172.815 4.67829 167.621 0.343992 160.397 0.343992H150.765V23.2882H160.431ZM160.397 18.1284H156.682V5.50387H160.431C164.628 5.50387 166.761 8.25581 166.761 11.7989C166.761 15.2044 164.422 18.1284 160.397 18.1284Z" transform="translate(95.3574 143.672) rotate(-12.65)" fill="white"/>
</svg>
